{"_id":{"$oid":"5d9d636300696927816f4a7f"},"day":"ПН","date":"2019-10-12","subject":"Русский язык","homework":"Упражнение 2 стр 202"}
{"_id":{"$oid":"5d9d667100696927816f4a80"},"day":"ПТ","date":"2019-10-11","subject":"Литература","homework":"Читать сказку"}
{"_id":{"$oid":"5d9d6c3f7ec82ebfed9c3e02"},"day":"ПТ","date":"2019-10-11","subject":"Математика","homework":"Решить примеры на стр 111"}
{"_id":{"$oid":"5d9d6c487ec82ebfed9c3e03"},"day":"ПТ","date":"2019-10-11","subject":"Окружающий мир","homework":"Собрать гербарий"}
