{"_id":"5d91efcd59f43ceafc01f7b2","day":"ПН","subjects":["Русский язык","Литература","Английский язык","Технология","Оружающий мир"]}
{"_id":{"$oid":"5d95fa6b1223a16f350b796d"},"day":"ВТ","subjects":["Физкультура","Математика","Английский язык","Русский язык","Литература"]}
{"_id":{"$oid":"5d95fa741223a16f350b796e"},"day":"СР","subjects":["Ритмика","Русский язык","Литература","Математика","Музыка","Риторика"]}
{"_id":{"$oid":"5d95fa7d1223a16f350b796f"},"day":"ЧТ","subjects":["Физкультура","Русский язык","Математика","ИЗО","Английский язык"]}
{"_id":{"$oid":"5d95fa901223a16f350b7970"},"day":"ПТ","subjects":["Окружающий мир","Русский язык","Литература","Математика","Информатика"]}
